{"hash":"eea78e1cc2b299408fe2da49f5645fdd47b1866c","data":{"post":{"totalCount":8,"pageInfo":{"totalPages":2,"currentPage":1},"edges":[{"node":{"title":"COCO","excerpt":"Coco (코코) is a white-coated Highland Straight and one of the CreamHeroes cats.","path":"/blog/coco/","created_at":"2020-01-11T00:00:01.723Z","category":"coco","image":{"type":"image","mimeType":"image/jpeg","src":"/creame-heroes/assets/static/coco.4250cd3.eda49b3d22a5caa10363500f6c5a3808.jpg","size":{"width":800,"height":447},"sizes":"(max-width: 800px) 100vw, 800px","srcset":["/creame-heroes/assets/static/coco.1b91758.eda49b3d22a5caa10363500f6c5a3808.jpg 480w","/creame-heroes/assets/static/coco.4250cd3.eda49b3d22a5caa10363500f6c5a3808.jpg 800w"],"dataUri":"data:image/svg+xml,%3csvg fill='none' viewBox='0 0 800 447' xmlns='http://www.w3.org/2000/svg' xmlns:xlink='http://www.w3.org/1999/xlink'%3e%3cdefs%3e%3cfilter id='__svg-blur-b94b5244aa3a71da0e25c6113c897e98'%3e%3cfeGaussianBlur in='SourceGraphic' stdDeviation='40'/%3e%3c/filter%3e%3c/defs%3e%3cimage x='0' y='0' filter='url(%23__svg-blur-b94b5244aa3a71da0e25c6113c897e98)' width='800' height='447' xlink:href='data:image/jpeg%3bbase64%2c/9j/2wBDAAYEBQYFBAYGBQYHBwYIChAKCgkJChQODwwQFxQYGBcUFhYaHSUfGhsjHBYWICwgIyYnKSopGR8tMC0oMCUoKSj/2wBDAQcHBwoIChMKChMoGhYaKCgoKCgoKCgoKCgoKCgoKCgoKCgoKCgoKCgoKCgoKCgoKCgoKCgoKCgoKCgoKCgoKCj/wAARCAAkAEADASIAAhEBAxEB/8QAGwAAAgIDAQAAAAAAAAAAAAAABAUABgIDBwH/xAApEAABBAEDAgYCAwAAAAAAAAABAgMEEQAFEiEiMQYTQVFhcTKBFFKh/8QAGAEAAwEBAAAAAAAAAAAAAAAAAwQFAgH/xAAfEQACAgMAAgMAAAAAAAAAAAAAAQIRAyExEjIEIkH/2gAMAwEAAhEDEQA/AKhpRPlI5I6BjiIlTshCdhUm%2brj0yvQX0Nst7iodNcAnHejKelTm2owdJBs9JArJkFc0U20kH%2bMl6w9DiN6UlQSVU55Y3Ks/j%2bvnPIcbVho4i6gy6uX5lcJPPVXf/cusVKNOZLklaUJAsqPAH3m5WosSoqH4rqHGTY8xCrFfeUp4k0xNTp2kVlCVNN9aFBQ42kc5rLyj%2bIrNj2pMypDrbTqFOt90A2RiZWpRy4dzyEm%2bQbGTc0FCvEcxy8ujxh0184WHyB3xDGltKSKebJ9t4wnzzRo39ZmM6OuNlL0RwnakJJocGvnOqeDIpbhrecHUs%2bvtnO/BcNMzUY8dxYaaU4lK3SLCEk8n9Z3mNo2nRoi0GaWEtq22442vaOKJ2nndZIrtXOUfjQS%2bzEs0/wARVdbhMzmFR5F7Fexoj6xZChQ/DegKjxWHHWEpoNlQJ7VfNemW7UdNgBqW5/LIdavYhb7ShdDaDtNnfZqu1c5z7XXEyXXozklI2d/Lvq%2bLxhyrgKKt7FulRoLMmTqTcdbciT%2bW5V8DgGvTjPJMRt1xS%2bBu5wdhtbSNiNxaHAJ5rMpLym1AXYrJ%2bXY3Dugd3S2XD1Ntr%2bSnNI0phNlDYQT/AFJGECSTmXnE%2buBVG9h3gBpO11yuoEJH1l5d4bAA4yZMrw9EIT9hTJSEk0AOPbK5qqEoWhSRRvJkwOThuHQlgAxqIvk4p1RIG0jvkyYvm4Hx9AAe2ZpUd1e2TJiqDH//2Q==' /%3e%3c/svg%3e"},"image_caption":"coco in CreamHeroes"}},{"node":{"title":"TT","excerpt":"TT (티티) is an American Shorthair + tabby cat and one of the CreamHeroes cats. She is one of the more territorial cats but has the closest bond with Claire. Most think her as the top ranking cat.","path":"/blog/tt/","created_at":"2020-01-11T00:00:01.723Z","category":"tt","image":{"type":"image","mimeType":"image/jpeg","src":"/creame-heroes/assets/static/tt.4250cd3.699e7d50b5edbd682f9517e74fe9a315.jpg","size":{"width":800,"height":500},"sizes":"(max-width: 800px) 100vw, 800px","srcset":["/creame-heroes/assets/static/tt.1b91758.699e7d50b5edbd682f9517e74fe9a315.jpg 480w","/creame-heroes/assets/static/tt.4250cd3.699e7d50b5edbd682f9517e74fe9a315.jpg 800w"],"dataUri":"data:image/svg+xml,%3csvg fill='none' viewBox='0 0 800 500' xmlns='http://www.w3.org/2000/svg' xmlns:xlink='http://www.w3.org/1999/xlink'%3e%3cdefs%3e%3cfilter id='__svg-blur-89ea02ef66f9380f6eef5fffef0834fb'%3e%3cfeGaussianBlur in='SourceGraphic' stdDeviation='40'/%3e%3c/filter%3e%3c/defs%3e%3cimage x='0' y='0' filter='url(%23__svg-blur-89ea02ef66f9380f6eef5fffef0834fb)' width='800' height='500' xlink:href='data:image/jpeg%3bbase64%2c/9j/2wBDAAYEBQYFBAYGBQYHBwYIChAKCgkJChQODwwQFxQYGBcUFhYaHSUfGhsjHBYWICwgIyYnKSopGR8tMC0oMCUoKSj/2wBDAQcHBwoIChMKChMoGhYaKCgoKCgoKCgoKCgoKCgoKCgoKCgoKCgoKCgoKCgoKCgoKCgoKCgoKCgoKCgoKCgoKCj/wAARCAAoAEADASIAAhEBAxEB/8QAGQAAAwEBAQAAAAAAAAAAAAAAAAYHBQQC/8QAMBAAAQMDAwIEBAYDAAAAAAAAAQIDBAAFEQYSITFxE0FRYQciI4EUFTJCUrGR0eH/xAAYAQADAQEAAAAAAAAAAAAAAAABAgMEAP/EABoRAAMBAQEBAAAAAAAAAAAAAAABAhEhMQP/2gAMAwEAAhEDEQA/AH9IBFesgDk4AriRJARlRwPOlLUuqNxVGiKwOilCpOsKTOnfqnUqYramIagV/uV7VGL9dHJV1Q8pZODgZNNMVLdwmqiPOKBWkkEHkmlu6aamtylJQptbaVfKsqAyO1T7XSyyeDro3WS4exiavewcDcT07/7qoMyGpTKXWVBSDUFgWKYgurlKS0w0netYO7jGePetLS%2brXbS6lC1KVFPG3%2bPb29qM059FqVXhaTXkjNclruce5xUvRlhSSM8GulRq6ekGsMGa8U29w5xx/wBqTPShvcJ4Vz2NUe%2buqTandpwdp/qorNmLbkLQogAHGazP00T4MWmlOP3UyvmCGxgD1zxTUhf5jcDFVFU2tJJDqjwtPqP8Vh6PaRJt7m0/Uzxk4zTPELLTzZUktPpPJ5ypOOR2NUniFfWZt4ltzNNzW4wdjhoYOU/qA%2b/Q1NUhzxwhWR0OfarBcYzKrdIDSVteKggk%2b/nipjA07f7vdjbrXbpE6Yy3vUhnBOzON3J6cijct9BNZwp/wtWn8I4lJPBI69jT4TSR8OrBe7XDMm6WyRFjOL2pccAwTggjr6inam%2bfEL9OvSYa9vqbcwmIlCi%2b6nOSk7QO/nUuWyh/ctZyonPJoopohZoG34bmkp7kaUIuEqCjkKUeg8wafJTkKPMjB5WHHkfT8NRwr1H2oopaXQpnq73OOxEPib0NoG5WBkkd6QrNqx6z6vYvkeK274DbzTTS1FOUuNqRlRHmN2ftRRTyuC0xt%2bFmsQyxaNPPxStEV519txOSVKcAGFY6AYzn%2bqqrrm5SlkAEnOBRRXZgG9R//9k=' /%3e%3c/svg%3e"},"image_caption":"tt in CreamHeroes"}},{"node":{"title":"DD","excerpt":"DD (디디) is a Norwegian Forest Cat and one of the CreamHeroes cats. He is very friendly and gentle as well as being one of the closest cats to Claire.","path":"/blog/dd/","created_at":"2020-01-11T00:00:01.723Z","category":"dd","image":{"type":"image","mimeType":"image/jpeg","src":"/creame-heroes/assets/static/dd.4250cd3.c24d9bfc52b4d00550f06442c44c0815.jpg","size":{"width":800,"height":447},"sizes":"(max-width: 800px) 100vw, 800px","srcset":["/creame-heroes/assets/static/dd.1b91758.c24d9bfc52b4d00550f06442c44c0815.jpg 480w","/creame-heroes/assets/static/dd.4250cd3.c24d9bfc52b4d00550f06442c44c0815.jpg 800w"],"dataUri":"data:image/svg+xml,%3csvg fill='none' viewBox='0 0 800 447' xmlns='http://www.w3.org/2000/svg' xmlns:xlink='http://www.w3.org/1999/xlink'%3e%3cdefs%3e%3cfilter id='__svg-blur-c883b71633e4e79dc791ab5106ce161e'%3e%3cfeGaussianBlur in='SourceGraphic' stdDeviation='40'/%3e%3c/filter%3e%3c/defs%3e%3cimage x='0' y='0' filter='url(%23__svg-blur-c883b71633e4e79dc791ab5106ce161e)' width='800' height='447' xlink:href='data:image/jpeg%3bbase64%2c/9j/2wBDAAYEBQYFBAYGBQYHBwYIChAKCgkJChQODwwQFxQYGBcUFhYaHSUfGhsjHBYWICwgIyYnKSopGR8tMC0oMCUoKSj/2wBDAQcHBwoIChMKChMoGhYaKCgoKCgoKCgoKCgoKCgoKCgoKCgoKCgoKCgoKCgoKCgoKCgoKCgoKCgoKCgoKCgoKCj/wAARCAAkAEADASIAAhEBAxEB/8QAGwAAAgMBAQEAAAAAAAAAAAAAAAYEBQcDAgH/xAApEAACAQMEAAYCAwEAAAAAAAABAgMABBEFEiExBhMUQVFhInEjMoGD/8QAGQEAAgMBAAAAAAAAAAAAAAAAAQMAAgQF/8QAHREAAgMAAgMAAAAAAAAAAAAAAAECETEDQRIhIv/aAAwDAQACEQMRAD8AWopIBgelz/0am/RtORdGlu/TNDNKypHuJOVyCSM1x8NaKsStc6lbZ28qjipmp6jLdOIolCL0AOABXJUaZ0obZ9F2skJODtIwCahjUwyPDd4uU5xuH5AfTd1wlkSFQjuqjJx8c1F820DSLFPG8xU4CsDz%2bqY1YW0XFrpukXMauyzw7h15pbFW2kyRaTZPHbaqqwu%2b7DNg9fFU8VoyZDEqCFA%2bzjk0uIfTXojuNzIG4OORRlx0rFJqTo1PR9emlmZIp5mhUcyNgZPwBimF9bLoVV2U44Ix3SLpssZt18onHwamecRVIyawE4qzlq%2bfICKWzjk0qXUvklUiG52OCaebuzadAQOCPjilDVNHuUu8xplT3jqmOLQYzVURNStFlRTHhiBjql2x0G8n1S3kUgrEyhWJO4KD0Pb/AGtD0vT0e32XB3MPepC2UNk24AYA4%2bqZCF7gufIutKvxbK%2bnWa3EKF2VThR7nFZnaaxe317KbmJTHnn8Su2nnVbm6u5pIi4liRv7EYwD7fZ%2b6jzQRS2f5IBIvRxzU5Em/QY/FFv4U1ZJnW1uslMYGeSp/dM0trAw/ikIY9bqymwFxHcF4yQwbOKerO8a4tgJCVkA7rN4tYOdPRzhUemQ%2b5FRbqNSTkZoore8MBXOAknFeZo1liKuMiiiqFlouXUMdtvMSAZ7%2b6rwizoHcc/VFFLYxHhoxFMm33%2batoQDEx6IHYooqdBWn//Z' /%3e%3c/svg%3e"},"image_caption":"dd in CreamHeroes"}},{"node":{"title":"LALA","excerpt":"Lala (라라) is a white-coated munchkin cat and is one of the CreamHeroes cats.","path":"/blog/lala/","created_at":"2020-01-11T00:00:01.723Z","category":"lala","image":{"type":"image","mimeType":"image/jpeg","src":"/creame-heroes/assets/static/lala.3326910.eb50a7d478253f1535c68b7ebb281837.jpg","size":{"width":620,"height":387},"sizes":"(max-width: 620px) 100vw, 620px","srcset":["/creame-heroes/assets/static/lala.3326910.eb50a7d478253f1535c68b7ebb281837.jpg 620w"],"dataUri":"data:image/svg+xml,%3csvg fill='none' viewBox='0 0 620 387' xmlns='http://www.w3.org/2000/svg' xmlns:xlink='http://www.w3.org/1999/xlink'%3e%3cdefs%3e%3cfilter id='__svg-blur-aa31875d5ab8044f55b95aea4a5b3077'%3e%3cfeGaussianBlur in='SourceGraphic' stdDeviation='40'/%3e%3c/filter%3e%3c/defs%3e%3cimage x='0' y='0' filter='url(%23__svg-blur-aa31875d5ab8044f55b95aea4a5b3077)' width='620' height='387' xlink:href='data:image/jpeg%3bbase64%2c/9j/2wBDAAYEBQYFBAYGBQYHBwYIChAKCgkJChQODwwQFxQYGBcUFhYaHSUfGhsjHBYWICwgIyYnKSopGR8tMC0oMCUoKSj/2wBDAQcHBwoIChMKChMoGhYaKCgoKCgoKCgoKCgoKCgoKCgoKCgoKCgoKCgoKCgoKCgoKCgoKCgoKCgoKCgoKCgoKCj/wAARCAAoAEADASIAAhEBAxEB/8QAGwAAAgMBAQEAAAAAAAAAAAAAAAUDBAYCBwj/xAAqEAACAQMDAgUEAwAAAAAAAAABAgMABBEFEiEGMRMiQWFxMlGBkQcVI//EABcBAAMBAAAAAAAAAAAAAAAAAAECAwD/xAAcEQADAQADAQEAAAAAAAAAAAAAARECAxIhMUH/2gAMAwEAAhEDEQA/AG0RwO9d5FUo7gYHIxUyyqwyCPxS0rCViKq3BqRn96tWulSXQDSOIkPbjJNCX4awwH8gRyN03cSBTsDoC3oPMK8903hwCPWvoOTS44He3eRJoGGWWVQQxPoRVa3toTCI77R7Brxm3QrCq4OCD9WO%2bOcH7Vnw9/0K31PLNK4uFBGOK3WjaodN6NBiOLiWeVY/Y7jk/is91Sklv1jeLMm1jhhg5yCODWa6sfUF6eSC0LnDkOY85VWJJ7e%2bBmm489XBdu%2bnpYtJ5EGyGUg%2b1WrHTL6OLaYcDJPLCrH9vKR5QBXQuL64tbi5jLeBbhfFYYwu44H7NRzjGHUy/Jz75FGia1snjmV7nAUHtnvTSadQMrxSfUtP1y2t5GmR4kjiSdi6g4RzhT%2b%2bKrX41XS5bdNRtXRZohMuOSUPZqfuiMozkVrhHxkn5qLT7F3uVlkZiUPl5xiqlvqUIYf6bfuTTCxv7dmOy4VjntmqZ9Yr8E/V2hi81MXAZVm8NQCe3FZ0aHqaHIls2%2bNwrb6vcrO6bD9Ixml%2b4j1obc04HPwVRyArTLS9Yn06K5ihSCSK4CiRJog4O05B%2bQaKKgUY1uOs9WukkS7a1uFdShElupG3duxxjsRkVX1PqjUtUCi8kicru2sIVUqDjIGPTiiimrFiE%2b/gDA4rtXx2wKKKwQ8YmgS8UUUUY//Z' /%3e%3c/svg%3e"},"image_caption":"lala in CreamHeroes"}},{"node":{"title":"MOMO","excerpt":"Momo (모모) is a Garfield-faced Exotic Shorthair and one of the CreamHeroes cats. His name also means peaches in Japanese.","path":"/blog/momo/","created_at":"2020-01-11T00:00:01.723Z","category":"momo","image":{"type":"image","mimeType":"image/jpeg","src":"/creame-heroes/assets/static/momo.4250cd3.8b4f5dd23af528c7d9a5d71584594ce3.jpg","size":{"width":800,"height":447},"sizes":"(max-width: 800px) 100vw, 800px","srcset":["/creame-heroes/assets/static/momo.1b91758.8b4f5dd23af528c7d9a5d71584594ce3.jpg 480w","/creame-heroes/assets/static/momo.4250cd3.8b4f5dd23af528c7d9a5d71584594ce3.jpg 800w"],"dataUri":"data:image/svg+xml,%3csvg fill='none' viewBox='0 0 800 447' xmlns='http://www.w3.org/2000/svg' xmlns:xlink='http://www.w3.org/1999/xlink'%3e%3cdefs%3e%3cfilter id='__svg-blur-84acb222c8c988bce74b0f5b48e399ee'%3e%3cfeGaussianBlur in='SourceGraphic' stdDeviation='40'/%3e%3c/filter%3e%3c/defs%3e%3cimage x='0' y='0' filter='url(%23__svg-blur-84acb222c8c988bce74b0f5b48e399ee)' width='800' height='447' xlink:href='data:image/jpeg%3bbase64%2c/9j/2wBDAAYEBQYFBAYGBQYHBwYIChAKCgkJChQODwwQFxQYGBcUFhYaHSUfGhsjHBYWICwgIyYnKSopGR8tMC0oMCUoKSj/2wBDAQcHBwoIChMKChMoGhYaKCgoKCgoKCgoKCgoKCgoKCgoKCgoKCgoKCgoKCgoKCgoKCgoKCgoKCgoKCgoKCgoKCj/wAARCAAkAEADASIAAhEBAxEB/8QAGQAAAwEBAQAAAAAAAAAAAAAAAAMEAgUG/8QALxAAAgEDAwIFAwIHAAAAAAAAAQIDAAQREiExBUEGEyJRYTJxgRSRFRYjQqHR8P/EABgBAQADAQAAAAAAAAAAAAAAAAIAAQMF/8QAHBEBAAIDAQEBAAAAAAAAAAAAAQACERIhMUED/9oADAMBAAIRAxEAPwCyFSDv/unAgMO322rKbLRnPcVw2dwltzbeVHFId0fuPesnZRnDDt7/AIp0t8zkRyqhVVyoLYGQOKVbXT3HR7q5kjWCZUChCPpyNQP3xtinoPaxJj2Y1gLjkezbYpbtvyQRxn/t6Qt1EzxoJYxJ5eSJCPW2eAKyZjI7EgKoGMfPes2qGZfk08hFLmIbcbGluecGku53FEcSYl6gY%2bpB996otmijDM%2bWfPpAXk1KroF9z7DaqoPMNu5RdOTtg4P71q4%2bw0ys1%2bkeRWmuTpjX%2bw8/vUELZaaMkCKQ40DcD52rpdK6hbKzW936Qdsk51fmkXjx24ka0bSrZ774rQK8YtkcM5H8KWWMvNJ/ViYN6FAJA205Pt81i6kSOQYcrH31nLE/ipJOtCEyDPmSDKkg/wCatvfC/XLi0t5V6dIsc4EizmRY0ClNeW1NgDT3yB252qWrsch2D2J/WIVwvHzWDdKeWq218FeIUhR5OnuIydOp8Lg5Yb5O2CjZPAAzwaVeWM1jM9vdWxR0IDFQCNxkbjYggggjtWNqWDKR11XjHAlcYPNdYnCSRj6VGBRRVWk/L7OD1C2jeePUG1RtgNncjG%2bag6rI0axovDpk5JzxRRTIrTk2tuk7y%2bZnSAfSNgdu9ei/mrrsc8ES9Tn8lAFEbBWTA2AKkYIweKKKpsnkhUsdJXB4q68VdW6rdMEbI1EHPB3yN%2bN/f81m/wCoXV4yS3UzSuW3zxwBwNuNvgUUVNl9YtKnQn//2Q==' /%3e%3c/svg%3e"},"image_caption":"momo in CreamHeroes"}},{"node":{"title":"LULU","excerpt":"Lulu (루루) is a Hybrid-mixed cat and is one of the CreamHeroes cats. He’s popular for his famous Big Steppy AKA Oh Lawd He Comin meme.","path":"/blog/lulu/","created_at":"2020-01-11T00:00:01.723Z","category":"lulu","image":{"type":"image","mimeType":"image/jpeg","src":"/creame-heroes/assets/static/lulu.4250cd3.a11cd842e510e54c6863aa5ed6d82cfc.jpg","size":{"width":800,"height":451},"sizes":"(max-width: 800px) 100vw, 800px","srcset":["/creame-heroes/assets/static/lulu.1b91758.a11cd842e510e54c6863aa5ed6d82cfc.jpg 480w","/creame-heroes/assets/static/lulu.4250cd3.a11cd842e510e54c6863aa5ed6d82cfc.jpg 800w"],"dataUri":"data:image/svg+xml,%3csvg fill='none' viewBox='0 0 800 451' xmlns='http://www.w3.org/2000/svg' xmlns:xlink='http://www.w3.org/1999/xlink'%3e%3cdefs%3e%3cfilter id='__svg-blur-f895724ec8bf945356641759b33a44c4'%3e%3cfeGaussianBlur in='SourceGraphic' stdDeviation='40'/%3e%3c/filter%3e%3c/defs%3e%3cimage x='0' y='0' filter='url(%23__svg-blur-f895724ec8bf945356641759b33a44c4)' width='800' height='451' xlink:href='data:image/jpeg%3bbase64%2c/9j/2wBDAAYEBQYFBAYGBQYHBwYIChAKCgkJChQODwwQFxQYGBcUFhYaHSUfGhsjHBYWICwgIyYnKSopGR8tMC0oMCUoKSj/2wBDAQcHBwoIChMKChMoGhYaKCgoKCgoKCgoKCgoKCgoKCgoKCgoKCgoKCgoKCgoKCgoKCgoKCgoKCgoKCgoKCgoKCj/wAARCAAkAEADASIAAhEBAxEB/8QAHAAAAgMAAwEAAAAAAAAAAAAAAAUEBgcBAgMI/8QALxAAAgEDAwIFAgUFAAAAAAAAAQIDAAQRBRIhMVEGEyJBcRRhBxUjMoFSobHR4f/EABkBAQADAQEAAAAAAAAAAAAAAAMAAgQBBf/EACIRAAICAQMEAwAAAAAAAAAAAAABAxECBBIxEyEiMmGB4f/aAAwDAQACEQMRAD8Axz8wWS4ctt49RA4xXb6lXLYYNg4bPXmr3F4O0pEK%2bXvDDBLAEkds4phFoVjbxbUTZk53KoBP84rz1q436oikvgzhisc5UFSzDI/596kQXQlnijMEszDcGAUnJC1oUGmW1l5k4P6ajdg%2b3HOaTTSRR7WR5AmQUc8Fh1Jz/NX3rN2JjHvdtiufSNUW1MRs5bWWQbk9ADMABgE%2b/wDNR4vC2ozTbpYoiG5ZncEg%2b%2bBmnFnqVzexKl/PJOEY7QuD%2b4DHI96uGib76FYooWE0eEMa%2bo8d/v3oY%2busO6W74/S8sCT8L%2bxL4L8P/l%2bs24kkYq6sgVGPBKkcf3rU7VUjjZfoUt1A9JU5b5Jo8M6SdPL3F/tE54jTIO0d/mml8U8iRxjCjNb9Os9l58gY8GSJcEAZ5r1M/QtmoVsk1zLshUk4yTnAA7k9AKgeMp5NO0MrosovNUkbB8kjbCO%2bT%2b4/FZY4HJ2wQzywx5OdWvJZYwsQAjdtik9D7E0uspLa3uy1zfGSVWBj86QAgA9u32pR4b1DVHgitdctXjjhO6OdiDj3wcHPWpGqxWsrGfUYYXRuFlPBA7j/AHT5R9Ok0WwyWS8WPtRuLcWQVLlLlyWYDIULuOT0Pzj3q/8A4VzwpZGRvLjMxO8tyz44A74rFYdNn88fSQQvvIVPUzsD/itv8B%2bHk0rRxHdRGC9Y7pnzliT9%2b3xSxq3aKyOlTLsIrONiUDkE5wFJAqLf7JYHiBOG9xG2cfFQbrS7UR73nuRn3EhFV6/066jYyWN9Myf0lyacFFV8fTNY3UWn2gWG1EYkKKMbmOeW79KphmfdyaKK36dVGqMcnszzaVicHpSXVpn1C8jtbg/pRL6QvGfmiij1CTasWJ1ZdPwRxeeNltLtVmghhZo1cftZeh46nk9a%2biYo0dHDKDsYqD74FFFZmkn2GtvkU3rlrgIcbemKT6rbJBH50JZH%2bx4oorjIf//Z' /%3e%3c/svg%3e"},"image_caption":"lulu in CreamHeroes"}}]}},"context":{}}